@startuml
box client #LightBlue
participant P1 [
    =Player 1
    ----
    KryonetServerConnector
]
box server
participant ServerHandler [
    << RequestHandler >>
    LobbyAdvancePhaseRequestHandler
]
participant ServerLobby
participant RunningGames
endbox
participant P2 [
    =Player 2
    ----
    KryonetServerConnector
]
endbox

P1 ->> ServerHandler: <<TCP>> LobbyAdvancePhaseRequest
ServerHandler -> ServerLobby: advanceLobbyPhase
activate ServerLobby
ServerLobby -> RunningGames: startGame
ServerLobby -> ServerLobby: setCurrentPhase(LobbyPhase.INGAME)
ServerLobby -> ServerLobby: lobbyChanged
activate ServerLobby
ServerLobby ->> P1: <<TCP>> lobbyState
ServerLobby ->> P2: <<TCP>> lobbyState
deactivate ServerLobby
deactivate ServerLobby

loop every 25ms
    RunningGames ->> RunningGames: UpdateGameStateTask
    activate RunningGames
        RunningGames -> RunningGames : advanceGameState
        RunningGames ->> P1: <<UDP>> GameStateTransferObject
        RunningGames ->> P2: <<UDP>> GameStateTransferObject
    deactivate RunningGames
end

@enduml